{


"intro":[

{"name": "NAFIUL AZIM", "address": "86-29 144th Street, Jamaica, NY 11435", "email": "nafiul.bzsb@gmail.com"}


],


"education":[


{"school": "Stony Brook University", "year": "3rd year", "major": "Computer Science", "graduation": "May, 2019"},


{"school": "Hillcrest High School", "year": "Graduated", "major": "BizTek", "graduation": "June, 2015"}

],


"skill":[


{"type":"Languages", "skillset": "Java| HTML| CSS| JavaScript| JQuery| Python"},


{"type":"Framework", "skillset":"JavaFX| BootStrap| WordPress"},


{"type":"Software", "skillset":"Microsoft Office| Netbeans| Eclipse| WAMPP| Android Studio| JavaFX Scene Builder"}




],


"courses":
[

{"title": "Data Structures Using Java"},
{"title": "Object Oriented Design using JavaFX"},
{"title": "Discrete Mathematics"},
{"title": "Theory of Computation"},
{"title": "Combinatorics"},
{"title": "Probability and Statistics"},
{"title": "Analysis of Algorithms"}

],




"project":[



{"title": "Metro Map Maker (Using Java)", "type": "Semester Project", 


"description": "This application will allow users to draw and edit subway maps and find shortest path between two stations<br>Application data can be exported as json and png file to use it with webpages<br>" , "date": "Fall, 2017" },
				
				
{"title": "Six Degrees of Kevin Bacon (Using Java)", "type": "Class Project", 
"description": "Make a graph of actors by the movie they were in together and find the shortest path between two actors<br>BigData framework was used to pull data from IMDB live database" , "date": "Spring, 2017" }

],



"experience":[




{"position": "Tutoring", "institution": "Mathmatters Tutoring Centeer", "description" : "Teaching High School Students Math, SAT, and Sciences" },

{"position": "Science Research Mentee", "institution": "American Museum of Natural History", "description" : "Redesign and modeling the metamorphic History of Guatemala Suture Zone" }


],


"activities" : [


{"org":"National Society of Collegiate Scholars", "activity": "Meetup with University's top students to learn more", "joined": "February, 2016"},

{"org":"Society of Asian Scientists and Engineers(SAS)", "activity": "Meet with people of similar career goals and learn about internships", "joined": "September, 2015"}



]




}