{
    "startingMondayMonth":  "11",
    "startingMondayDay":    "6",
    "endingFridayMonth":    "12",
    "endingFridayDay":      "22",
    "holidays": [
       {"month": "11", "day": "11", "title": "Veteran's Day", "topic": "Salute The Veterans", "link": ""},
       
       {"month": "11", "day": "22", "title": "Thanksgiving", "topic": "Turkey Celebration<br>", "link": ""},
       {"month": "11", "day": "23", "title": "Thankgiving", "topic": "Turkey Celebration<br>", "link": ""},
       {"month": "11", "day": "24", "title": "Thnaksgiving", "topic": "Turkey Celebration", "link": ""}
    ],
    "lectures":[
        {"month": "11", "day": "13", "title": "LECTURE", "topic": "CSE-219 LECTURE- DESIGN PATTERN<br>", "link": ""},
        {"month": "11", "day": "18", "title": "SAT Prep", "topic": "College Board Practice Test-1<br>", "link": ""},
        {"month": "11", "day": "19", "title": "Chemistry", "topic": "Balancing Chemical Reaction<br>", "link": ""},
        {"month": "11", "day": "21", "title": "CSE-373", "topic": "MIDTERM-2<br>", "link": ""},
        {"month": "11", "day": "21", "title": "", "topic": "", "link": ""},
        {"month": "11", "day": "28", "title": "", "topic": "", "link": ""}
    ],
    "references": [
         
         ],

    "recitations":[
        
    ],
    "hws": [
        {"month": "11", "day": "9", "title": "CSE373-HW_4", "topic": "due @ 1:00pm<br />(GUIs)<br />","link": ""},
        {"month": "11", "day": "21", "title": "AMS-310", "topic": "HOMEOWORK-7 DUE<br>", "link": ""},
        {"month": "11", "day": "28", "title": "CSE-219", "topic": "HOMEWORK-7 DUE<br>", "link": ""},
        {"month": "", "day": "", "title": "", "topic": "", "link": ""}
        
    ]
}
